,sunday,monday,tuesday,wednesday,thursday,friday,saturday
7:00:00 AM,0,0,0,0,0,0,0
7:30:00 AM,0,0,0,0,0,0,0
8:00:00 AM,0,0,0,0,0,0,0
8:30:00 AM,0,0,0,0,0,0,0
9:00:00 AM,0,0,0,0,0,0,0
9:30:00 AM,0,0,1,0,1,0,0
10:00:00 AM,0,0,1,0,1,0,0
10:30:00 AM,0,0,1,0,1,0,0
11:00:00 AM,0,0,1,0,1,0,0
11:30:00 AM,0,0,1,0,1,0,0
12:00:00 PM,0,0,1,0,1,0,0
12:30:00 PM,0,0,1,0,1,0,0
1:00:00 PM,0,0,1,0,1,0,0
1:30:00 PM,0,0,1,0,1,0,0
2:00:00 PM,0,1,1,0,1,0,0
2:30:00 PM,0,1,1,0,1,0,0
3:00:00 PM,0,0,1,0,1,0,0
3:30:00 PM,0,0,0,0,0,0,0
4:00:00 PM,0,0,0,0,0,0,0
4:30:00 PM,0,0,0,0,0,0,0
5:00:00 PM,0,0,0,0,0,0,0
5:30:00 PM,0,0,0,0,0,0,0
6:00:00 PM,0,0,0,0,0,0,0
6:30:00 PM,0,0,0,0,0,0,0
7:00:00 PM,0,0,0,0,0,0,0
7:30:00 PM,0,0,0,0,0,0,0
8:00:00 PM,0,0,0,0,0,0,0
8:30:00 PM,0,0,0,0,0,0,0
9:00:00 PM,0,0,0,0,0,0,0
